[
    {
        "plugins": [
            {
                "options": [ "BO_SPLASH" ],
                "proba": 0.33333333333333
            },
            {
                "options": [ "BO_BLUR" ]
            },
            {
                "options": [ "BO_SFX" ]
            }
        ]
    },
    {
        "plugins": [
            {
                "options": [ "BO_SPLASH" ],
                "proba": 0.33333333333333
            },
            {
                "options": [ "BO_IMAGE" ]
            },
            {
                "options": [ "BO_BLUR" ]
            },
            {
                "options": [ "BO_SFX" ]
            }
        ]
    },
    {
        "plugins": [
            {
                "options": [ "BO_SPLASH" ],
                "proba": 0.33333333333333
            },
            {
                "options": [ "BO_SFX" ]
            },
            {
                "options": [ "BO_BLUR" ]
            },
            {
                "options": [ "BO_NOT_LENS" ]
            }
        ]
    },
    {
        "plugins": [
            {
                "options": [ "BO_SPLASH" ],
                "proba": 0.33333333333333
            },
            {
                "options": [ "BO_BLUR" ]
            },
            {
                "options": [ "BO_SFX" ]
            },
            {
                "options": [ "BO_GFX" ]
            }
        ]
    },
    {
        "plugins": [
            {
                "options": [ "BO_SPLASH" ],
                "proba": 0.33333333333333
            },
            {
                "options": [ "BO_BLUR" ]
            },
            {
                "options": [ "BO_SFX" ]
            },
            {
                "options": [ "BO_LENS" ]
            }
        ]
    },
    {
        "plugins": [
            {
                "options": [ "BO_SPLASH" ],
                "proba": 0.33333333333333
            },
            {
                "options": [ "BO_BLUR" ]
            },
            {
                "options": [ "BO_IMAGE" ]
            },
            {
                "options": [ "BO_GFX" ]
            },
            {
                "options": [ "BO_SFX" ]
            }
        ]
    },
    {
        "plugins": [
            {
                "options": [ "BO_SPLASH" ],
                "proba": 0.33333333333333
            },
            {
                "options": [ "BO_GFX" ]
            },
            {
                "options": [ "BO_SFX" ]
            },
            {
                "options": [ "BO_DISPLACE" ]
            },
            {
                "options": [ "BO_BLUR" ]
            }
        ]
    },
    {
        "plugins": [
            {
                "options": [ "BO_SPLASH" ],
                "proba": 0.33333333333333
            },
            {
                "options": [ "BO_SFX" ]
            },
            {
                "options": [ "BO_BLUR" ]
            },
            {
                "options": [ "BO_DISPLACE" ]
            }
        ]
    },
    {
        "plugins": [
            {
                "options": [ "BO_SPLASH" ],
                "proba": 0.33333333333333
            },
            {
                "options": [ "BO_SFX" ]
            },
            {
                "options": [ "BO_GFX" ]
            },
            {
                "options": [ "BO_IMAGE" ]
            },
            {
                "options": [ "BO_BLUR" ]
            }
        ]
    },
    {
        "plugins": [
            {
                "options": [ "BO_SPLASH" ],
                "proba": 0.33333333333333
            },
            {
                "options": [ "BO_IMAGE" ]
            },
            {
                "options": [ "BO_DISPLACE" ]
            },
            {
                "options": [ "BO_BLUR" ]
            },
            {
                "options": [ "BO_SFX" ]
            }
        ]
    },
    {
        "plugins": [
            {
                "options": [ "BO_SPLASH" ],
                "proba": 0.33333333333333
            },
            {
                "options": [ "BO_GFX" ]
            },
            {
                "options": [ "BO_BLUR" ]
            },
            {
                "options": [ "BO_SFX" ]
            },
            {
                "options": [ "BO_LENS" ]
            }
        ]
    },
    {
        "plugins": [
            {
                "options": [ "BO_SPLASH" ],
                "proba": 0.33333333333333
            },
            {
                "options": [ "BO_SFX" ]
            },
            {
                "options": [ "BO_DISPLACE" ]
        },
            {
                "options": [ "BO_SFX" ]
            },
            {
                "options": [ "BO_BLUR" ]
            }
        ]
    },
    {
        "plugins": [
            {
                "options": [ "BO_SPLASH" ],
                "proba": 0.33333333333333
            },
            {
                "options": [ "BO_BLUR" ]
            },
            {
                "options": [ "BO_DISPLACE" ]
            },
            {
                "options": [ "BO_SFX" ]
            },
            {
                "options": [ "BO_LENS" ]
            }
        ]
    },
    {
        "plugins": [
            {
                "options": [ "BO_SPLASH" ],
                "proba": 0.33333333333333
            },
            {
                "options": [ "BO_SFX" ]
            },
            {
                "options": [ "BO_BLUR" ]
            },
            {
                "options": [ "BO_DISPLACE" ]
            }
        ]
    },
    {
        "plugins": [
            {
                "options": [ "BO_SPLASH" ],
                "proba": 0.33333333333333
            },
            {
                "options": [ "BO_SFX" ]
            },
            {
                "options": [ "BO_GFX" ]
            },
            {
                "options": [ "BO_BLUR" ]
            },
            {
                "options": [ "BO_DISPLACE" ]
            }
        ]
    },
    {
        "plugins": [
            {
                "options": [ "BO_SPLASH" ],
                "proba": 0.33333333333333
            },
            {
                "options": [ "BO_SFX" ]
            },
            {
                "options": [ "BO_BLUR" ]
            },
            {
                "options": [ "BO_DISPLACE" ]
            },
            {
                "options": [ "BO_LENS" ]
            }
        ]
    },
    {
        "plugins": [
            {
                "options": [ "BO_SPLASH" ],
                "proba": 0.33333333333333
            },
            {
                "options": [ "BO_BLUR" ]
            },
            {
                "options": [ "BO_SFX" ]
            },
            {
                "options": [ "BO_GFX", "BO_IMAGE" ]
            },
            {
                "options": [ "BO_DISPLACE" ]
            },
            {
                "options": [ "BO_LENS" ]
            }
        ]
    }
]
